7 Exam 1 – COMP/STAT112 Notebook
…
7  Exam 1

 Code

8 Grand Research Question: What does the consumption of each food category in each country look like?

Get Data

$food_consumption
# A tibble: 1,430 × 4
   country   food_category            consumption co2_emmission
   <chr>     <chr>                          <dbl>         <dbl>
 1 Argentina Pork                           10.5          37.2 
 2 Argentina Poultry                        38.7          41.5 
 3 Argentina Beef                           55.5        1712   
 4 Argentina Lamb & Goat                     1.56         54.6 
 5 Argentina Fish                            4.36          6.96
 6 Argentina Eggs                           11.4          10.5 
 7 Argentina Milk - inc. cheese            195.          278.  
 8 Argentina Wheat and Wheat Products      103.           19.7 
 9 Argentina Rice                            8.77         11.2 
10 Argentina Soybeans                        0             0   
# ℹ 1,420 more rows
…
